{
	"coord": {
		"lon": 27.93,
		"lat": -26.13
	},
	"weather": [
    {
				"id": 802,
				"main": "Clouds",
				"description": "scattered clouds",
				"icon": "03d"
    }
				],
	"base": "stations",
	"main": {
		"temp": 29,
		"pressure": 1019,
		"humidity": 39,
		"temp_min": 16,
		"temp_max": 29
	},
	"visibility": 10000,
	"wind": {
		"speed": 3.1,
		"deg": 260
	},
	"clouds": {
		"all": 40
	},
	"dt": 1520251200,
	"sys": {
		"type": 1,
		"id": 6569,
		"message": 0.0027,
		"country": "ZA",
		"sunrise": 1520222663,
		"sunset": 1520267671
	},
	"id": 8063460,
	"name": "Radiokop",
	"cod": 200
}
